report_code
…
Values close to 1 indicate stable clusters, so the first 3, fifth and seventh clusters have relatively higher stability.

External validity

df_labels <- df
df_labels$cluster_hc_eucl_comp <- clus_hc_eucl_comp  # Add cluster assignments to the original dataset

# Count the number of occurrences of each class within each cluster
cluster_hc_eucl_comp_mapping <- df_labels %>%
  group_by(cluster_hc_eucl_comp, class) %>%
  summarise(count = n(), .groups = "drop") %>%
  arrange(cluster_hc_eucl_comp, desc(count))  # Ensure sorting by most frequent class
cluster_hc_eucl_comp_mapping

# A tibble: 27 × 3
   cluster_hc_eucl_comp class       count
   <fct>                <chr>       <int>
 1 1                    "building "    18
 2 1                    "car "          4
 3 1                    "concrete "     2
 4 1                    "grass "        1
 5 1                    "pool "         1
 6 2                    "concrete "    17
 7 2                    "soil "        13
 8 2                    "grass "        5
 9 2                    "building "     1
10 2                    "tree "         1
# ℹ 17 more rows
…
Values close to 1 indicate stable clusters, so generally the stability here is worse than just using the hierarchical clustering, except for the 4th cluster.

External validity

df_labels$cluster_pca <- clus_pca  # Add cluster assignments to the original dataset

# Count the number of occurrences of each class within each cluster
cluster_pca_mapping <- df_labels %>%
  group_by(cluster_pca, class) %>%
  summarise(count = n(), .groups = "drop") %>%
  arrange(cluster_pca, desc(count))  # Ensure sorting by most frequent class
cluster_pca_mapping

# A tibble: 28 × 3
   cluster_pca class       count
   <fct>       <fct>       <int>
 1 1           "building "    14
 2 1           "car "          2
 3 1           "grass "        1
 4 1           "pool "         1
 5 2           "concrete "    14
 6 2           "soil "        11
 7 2           "building "     8
 8 2           "grass "        7
 9 2           "car "          1
10 3           "concrete "     3
# ℹ 18 more rows
…
